i	u
0.00662252	0.00239424	0.00478745	0.00717858
0.013245	0.00478745	0.00956661	0.0143292
0.0198675	0.00717858	0.0143292	0.021424
0.0264901	0.00956661	0.019067	0.0284354
0.0331126	0.0119505	0.0237718	0.0353361
0.0397351	0.0143292	0.0284354	0.0420991
0.0463576	0.0167017	0.0330498	0.0486982
0.0529801	0.019067	0.037607	0.0551076
0.0596026	0.021424	0.0420991	0.0613024
0.0662252	0.0237718	0.0465183	0.0672585
0.0728477	0.0261093	0.050857	0.0729526
0.0794702	0.0284354	0.0551076	0.0783626
0.0860927	0.0307493	0.0592628	0.0834675
0.0927152	0.0330498	0.0633155	0.0882473
0.0993377	0.0353361	0.0672585	0.0926834
0.10596	0.037607	0.0710851	0.0967585
0.112583	0.0398617	0.0747886	0.100457
0.119205	0.0420991	0.0783626	0.103764
0.125828	0.0443183	0.081801	0.106667
0.13245	0.0465183	0.0850978	0.109155
0.139073	0.0486982	0.0882473	0.111217
0.145695	0.050857	0.0912439	0.112846
0.152318	0.0529937	0.0940827	0.114036
0.15894	0.0551076	0.0967585	0.114782
0.165563	0.0571976	0.0992669	0.115081
0.172185	0.0592628	0.101603	0.114931
0.178808	0.0613024	0.103764	0.114334
0.18543	0.0633155	0.105745	0.113292
0.192053	0.0653011	0.107543	0.111809
0.198675	0.0672585	0.109155	0.10989
0.205298	0.0691867	0.110577	0.107543
0.211921	0.0710851	0.111809	0.104777
0.218543	0.0729526	0.112846	0.101603
0.225166	0.0747886	0.113689	0.0980339
0.231788	0.0765922	0.114334	0.0940827
0.238411	0.0783626	0.114782	0.089765
0.245033	0.0800992	0.115031	0.0850978
0.251656	0.081801	0.115081	0.0800992
0.258278	0.0834675	0.114931	0.0747886
0.264901	0.0850978	0.114583	0.0691867
0.271523	0.0866913	0.114036	0.0633155
0.278146	0.0882473	0.113292	0.0571976
0.284768	0.089765	0.112352	0.050857
0.291391	0.0912439	0.111217	0.0443183
0.298013	0.0926834	0.10989	0.037607
0.304636	0.0940827	0.108372	0.0307493
0.311258	0.0954412	0.106667	0.0237718
0.317881	0.0967585	0.104777	0.0167017
0.324503	0.0980339	0.102706	0.00956661
0.331126	0.0992669	0.100457	0.00239424
0.337748	0.100457	0.0980339	-0.00478745
0.344371	0.101603	0.0954412	-0.0119505
0.350993	0.102706	0.0926834	-0.019067
0.357616	0.103764	0.089765	-0.0261093
0.364238	0.104777	0.0866913	-0.0330498
0.370861	0.105745	0.0834675	-0.0398617
0.377483	0.106667	0.0800992	-0.0465183
0.384106	0.107543	0.0765922	-0.0529937
0.390728	0.108372	0.0729526	-0.0592628
0.397351	0.109155	0.0691867	-0.0653011
0.403974	0.10989	0.0653011	-0.0710851
0.410596	0.110577	0.0613024	-0.0765922
0.417219	0.111217	0.0571976	-0.081801
0.423841	0.111809	0.0529937	-0.0866913
0.430464	0.112352	0.0486982	-0.0912439
0.437086	0.112846	0.0443183	-0.0954412
0.443709	0.113292	0.0398617	-0.0992669
0.450331	0.113689	0.0353361	-0.102706
0.456954	0.114036	0.0307493	-0.105745
0.463576	0.114334	0.0261093	-0.108372
0.470199	0.114583	0.021424	-0.110577
0.476821	0.114782	0.0167017	-0.112352
0.483444	0.114931	0.0119505	-0.113689
0.490066	0.115031	0.00717858	-0.114583
0.496689	0.115081	0.00239424	-0.115031
0.503311	0.115081	-0.00239424	-0.115031
0.509934	0.115031	-0.00717858	-0.114583
0.516556	0.114931	-0.0119505	-0.113689
0.523179	0.114782	-0.0167017	-0.112352
0.529801	0.114583	-0.021424	-0.110577
0.536424	0.114334	-0.0261093	-0.108372
0.543046	0.114036	-0.0307493	-0.105745
0.549669	0.113689	-0.0353361	-0.102706
0.556291	0.113292	-0.0398617	-0.0992669
0.562914	0.112846	-0.0443183	-0.0954412
0.569536	0.112352	-0.0486982	-0.0912439
0.576159	0.111809	-0.0529937	-0.0866913
0.582781	0.111217	-0.0571976	-0.081801
0.589404	0.110577	-0.0613024	-0.0765922
0.596026	0.10989	-0.0653011	-0.0710851
0.602649	0.109155	-0.0691867	-0.0653011
0.609272	0.108372	-0.0729526	-0.0592628
0.615894	0.107543	-0.0765922	-0.0529937
0.622517	0.106667	-0.0800992	-0.0465183
0.629139	0.105745	-0.0834675	-0.0398617
0.635762	0.104777	-0.0866913	-0.0330498
0.642384	0.103764	-0.089765	-0.0261093
0.649007	0.102706	-0.0926834	-0.019067
0.655629	0.101603	-0.0954412	-0.0119505
0.662252	0.100457	-0.0980339	-0.00478745
0.668874	0.0992669	-0.100457	0.00239424
0.675497	0.0980339	-0.102706	0.00956661
0.682119	0.0967585	-0.104777	0.0167017
0.688742	0.0954412	-0.106667	0.0237718
0.695364	0.0940827	-0.108372	0.0307493
0.701987	0.0926834	-0.10989	0.037607
0.708609	0.0912439	-0.111217	0.0443183
0.715232	0.089765	-0.112352	0.050857
0.721854	0.0882473	-0.113292	0.0571976
0.728477	0.0866913	-0.114036	0.0633155
0.735099	0.0850978	-0.114583	0.0691867
0.741722	0.0834675	-0.114931	0.0747886
0.748344	0.081801	-0.115081	0.0800992
0.754967	0.0800992	-0.115031	0.0850978
0.761589	0.0783626	-0.114782	0.089765
0.768212	0.0765922	-0.114334	0.0940827
0.774834	0.0747886	-0.113689	0.0980339
0.781457	0.0729526	-0.112846	0.101603
0.788079	0.0710851	-0.111809	0.104777
0.794702	0.0691867	-0.110577	0.107543
0.801325	0.0672585	-0.109155	0.10989
0.807947	0.0653011	-0.107543	0.111809
0.81457	0.0633155	-0.105745	0.113292
0.821192	0.0613024	-0.103764	0.114334
0.827815	0.0592628	-0.101603	0.114931
0.834437	0.0571976	-0.0992669	0.115081
0.84106	0.0551076	-0.0967585	0.114782
0.847682	0.0529937	-0.0940827	0.114036
0.854305	0.050857	-0.0912439	0.112846
0.860927	0.0486982	-0.0882473	0.111217
0.86755	0.0465183	-0.0850978	0.109155
0.874172	0.0443183	-0.081801	0.106667
0.880795	0.0420991	-0.0783626	0.103764
0.887417	0.0398617	-0.0747886	0.100457
0.89404	0.037607	-0.0710851	0.0967585
0.900662	0.0353361	-0.0672585	0.0926834
0.907285	0.0330498	-0.0633155	0.0882473
0.913907	0.0307493	-0.0592628	0.0834675
0.92053	0.0284354	-0.0551076	0.0783626
0.927152	0.0261093	-0.050857	0.0729526
0.933775	0.0237718	-0.0465183	0.0672585
0.940397	0.021424	-0.0420991	0.0613024
0.94702	0.019067	-0.037607	0.0551076
0.953642	0.0167017	-0.0330498	0.0486982
0.960265	0.0143292	-0.0284354	0.0420991
0.966887	0.0119505	-0.0237718	0.0353361
0.97351	0.00956661	-0.019067	0.0284354
0.980132	0.00717858	-0.0143292	0.021424
0.986755	0.00478745	-0.00956661	0.0143292
0.993377	0.00239424	-0.00478745	0.00717858
