\relax 
\@writefile{lof}{\contentsline {figure}{\numberline {1}{\ignorespaces The energy eigen values of the one dimmensional infinite square well. Both the analytical value $E = \frac  {\pi ^2n^2}{2}$ using natural units. The numerical values are calculated using either a 3 point or a 5 point approximation of the second drivative. Interestingly the 3 point gives an energy closer to the exact value than the 5 point approxmation.}}{1}}
\@writefile{lof}{\contentsline {figure}{\numberline {2}{\ignorespaces The first 3 wavefunctions in the infinite square well, found using the three point approximation.}}{2}}
