\relax 
\@writefile{toc}{\contentsline {section}{\numberline {1}Definition}{1}}
\@writefile{lof}{\contentsline {figure}{\numberline {1}{\ignorespaces The error function in the area around $x=0$.}}{1}}
\newlabel{fig:erfgraph}{{1}{1}}
\@writefile{toc}{\contentsline {section}{\numberline {2}Derivatives}{2}}
\@writefile{toc}{\contentsline {section}{\numberline {3}Generalisation}{2}}
