-3	0
-2.9	1.90074e-05
-2.8	5.29227e-05
-2.7	0.000112242
-2.6	0.000213944
-2.5	0.000384862
-2.4	0.000666423
-2.3	0.00112109
-2.2	0.00184076
-2.1	0.00295738
-2	0.00465564
-1.9	0.00718748
-1.8	0.0108874
-1.7	0.0161875
-1.6	0.0236295
-1.5	0.0338728
-1.4	0.0476928
-1.3	0.06597
-1.2	0.0896639
-1.1	0.119773
-1	0.157277
-0.9	0.20307
-0.8	0.257877
-0.7	0.322177
-0.6	0.396122
-0.5	0.479478
-0.4	0.571586
-0.3	0.671351
-0.2	0.777275
-0.1	0.887515
1.52656e-15	0.999978
0.1	1.11244
0.2	1.22268
0.3	1.3286
0.4	1.42837
0.5	1.52048
0.6	1.60383
0.7	1.67778
0.8	1.74208
0.9	1.79689
1	1.84268
1.1	1.88018
1.2	1.91029
1.3	1.93399
1.4	1.95226
1.5	1.96608
1.6	1.97633
1.7	1.98377
1.8	1.98907
1.9	1.99277
2	1.9953
2.1	1.997
2.2	1.99812
2.3	1.99883
2.4	1.99929
2.5	1.99957
2.6	1.99974
2.7	1.99984
2.8	1.9999
2.9	1.99994
