\relax 
\@writefile{toc}{\contentsline {paragraph}{problem}{1}}
\@writefile{toc}{\contentsline {paragraph}{theoretical question}{1}}
\@writefile{toc}{\contentsline {paragraph}{Implementation}{1}}
\@writefile{lof}{\contentsline {figure}{\numberline {1}{\ignorespaces The arccotangent function calculated using an ordinary differnetial equation solver, on the range $[0.\pi ]$.}}{1}}
\newlabel{fig:acot}{{1}{1}}
\@writefile{lof}{\contentsline {figure}{\numberline {2}{\ignorespaces The difference between mu implemented arccotangens and one calculalated using the \texttt  {math.h} library.}}{2}}
\newlabel{fig:diff}{{2}{2}}
