rmax	E simpel	E improved
8	-0.49997709	-0.49997521
8.1	-0.49998105	-0.49997907
8.2	-0.49998438	-0.49998241
8.3	-0.49998719	-0.49998522
8.4	-0.49998955	-0.49998758
8.5	-0.49999155	-0.49998957
8.6	-0.49999322	-0.49999125
8.7	-0.49999463	-0.49999266
8.8	-0.49999582	-0.49999385
8.9	-0.49999682	-0.49999485
9	-0.49999767	-0.4999957
9.1	-0.49999835	-0.49999638
9.2	-0.49999894	-0.49999697
9.3	-0.49999943	-0.49999746
9.4	-0.49999985	-0.49999788
9.5	-0.50000019	-0.49999822
9.6	-0.50000049	-0.49999852
9.7	-0.50000073	-0.49999876
9.8	-0.50000094	-0.49999897
9.9	-0.50000111	-0.49999914
10	-0.50000126	-0.49999929
10.1	-0.50000138	-0.49999941
10.2	-0.50000147	-0.4999995
10.3	-0.50000156	-0.49999959
10.4	-0.50000163	-0.49999966
10.5	-0.50000169	-0.49999972
10.6	-0.50000174	-0.49999977
10.7	-0.50000178	-0.49999981
10.8	-0.50000181	-0.49999984
10.9	-0.50000184	-0.49999987
11	-0.50000187	-0.4999999
11.1	-0.50000189	-0.49999992
11.2	-0.50000191	-0.49999994
11.3	-0.50000192	-0.49999995
11.4	-0.50000193	-0.49999996
11.5	-0.50000194	-0.49999997
11.6	-0.50000195	-0.49999998
11.7	-0.50000195	-0.49999998
11.8	-0.50000196	-0.49999999
11.9	-0.50000197	-0.5
12	-0.50000197	-0.5
