\relax 
\@writefile{lol}{\contentsline {lstlisting}{E8.txt}{1}}
\@writefile{lot}{\contentsline {table}{\numberline {1}{\ignorespaces The energy using both boundary conditions and $r_{max} = 8a_0.$}}{1}}
\newlabel{energy}{{1}{1}}
\@writefile{lof}{\contentsline {figure}{\numberline {1}{\ignorespaces The wavefunction using two different boundary conditions and the analytical result. Notice that they are atom eachother and the minute differences kannot be resolved on this graph.}}{2}}
\newlabel{wave}{{1}{2}}
\@writefile{lof}{\contentsline {figure}{\numberline {2}{\ignorespaces How the energy converges as a function of $r_{max}$. Notice that the simple boundary condition does not converge to the actual energy, whereas the improved boundary condition does so.}}{3}}
\newlabel{convergence}{{2}{3}}
