\relax 
\@writefile{toc}{\contentsline {section}{\numberline {1}}{1}}
\@writefile{toc}{\contentsline {section}{\numberline {2}}{1}}
\@writefile{lof}{\contentsline {figure}{\numberline {1}{\ignorespaces The variational energy plotted against the paramter $\alpha $.}}{1}}
\newlabel{fig:variation}{{1}{1}}
