\relax 
\@writefile{lof}{\contentsline {figure}{\numberline {1}{\ignorespaces Numerical solutions to the differential equation $y' = y(y-1)$, for different initial values, and the analytic solution for comparison.}}{1}}
\@writefile{lof}{\contentsline {figure}{\numberline {2}{\ignorespaces Circular orbit}}{1}}
\@writefile{lof}{\contentsline {figure}{\numberline {3}{\ignorespaces eliptical orbit}}{2}}
\@writefile{lof}{\contentsline {figure}{\numberline {4}{\ignorespaces elliptical orbit with relativistic correction}}{2}}
